…
___
## Part 2 : Learning function from Tidyverse
__Tidyverse__ คือ การรวบรวม collection R packages โดยมี package สำหรับการทำ data science แบบครบวงจร ตั้งแต่การ import data, tidy data, data manipulation ไปจนถึง visualization

##### Example :
```
as_tibble(book)
```
##### Result :
```
# A tibble: 271 x 7
   Rating Reviews Book_title Description Number_Of_Pages Type  Price
    <dbl>   <dbl> <chr>      <chr>                 <dbl> <chr> <dbl>
 1   4.17    3829 The Eleme~ "This styl~             105 Hard~  9.32
 2   4.01    1406 The Infor~ "James Gle~             527 Hard~ 11   
 3   3.33       0 Responsiv~ "In Respon~              50 Kind~ 11.3 
 4   3.97    1658 Ghost in ~ "If they w~             393 Hard~ 12.9 
 5   4.06    1325 How Googl~ "Both Eric~             305 Kind~ 13.2 
 6   3.84     117 The Meme ~ "What is a~             288 Pape~ 14.2 
 7   4.09    5938 Start wit~ "Why do yo~             256 Hard~ 14.2 
 8   4.15    1817 Algorithm~ "A fascina~             368 Hard~ 14.4 
 9   3.87    2093 Weapons o~ "A former ~             259 Hard~ 14.5 
10   4.62       0 ZX Spectr~ "This book~             128 Pape~ 14.6 
# ... with 261 more rows
```
…
```
meanPrice <- book$Price %>% mean
meanPrice

book %>% select(Book_title, Number_Of_Pages, Price) %>% filter(book$Price > meanPrice)

```
##### Result :
```
> meanPrice
[1] 54.54186

> book %>% select(Book_title, Number_Of_Pages, Price) %>% filter(book$Price > meanPrice)
# A tibble: 105 x 3
   Book_title                 Number_Of_Pages Price
   <chr>                                <dbl> <dbl>
 1 Effective Programming: Mo~             283  54.7
 2 Building Microservices: D~             262  54.9
 3 Exceptional C++: 47 Engin~             208  56.1
 4 Reviewing Java                         658  56.6
 5 Microsoft Visual C# Step ~             816  56.6
 6 Refactoring: Improving th~             431  57.2
 7 Growing Object-Oriented S~             345  57.2
 8 Modern C++ Design: Generi~             360  58.4
 9 Structure and Interpretat~             657  58.9
10 Structure and Interpretat~             657  58.9
# ... with 95 more rows
```
…
